%YAML 1.1
%TAG !u! tag:unity3d.com,2011:
--- !u!1 &5719165662263407510
GameObject:
  m_ObjectHideFlags: 0
  m_CorrespondingSourceObject: {fileID: 0}
  m_PrefabInstance: {fileID: 0}
  m_PrefabAsset: {fileID: 0}
  serializedVersion: 6
  m_Component:
  - component: {fileID: 5719165662263407505}
  - component: {fileID: 2310960883715059355}
  m_Layer: 0
  m_Name: Tiles - Manager
  m_TagString: Untagged
  m_Icon: {fileID: 0}
  m_NavMeshLayer: 0
  m_StaticEditorFlags: 0
  m_IsActive: 1
--- !u!4 &5719165662263407505
Transform:
  m_ObjectHideFlags: 0
  m_CorrespondingSourceObject: {fileID: 0}
  m_PrefabInstance: {fileID: 0}
  m_PrefabAsset: {fileID: 0}
  m_GameObject: {fileID: 5719165662263407510}
  m_LocalRotation: {x: 0, y: 0, z: 0, w: 1}
  m_LocalPosition: {x: 0, y: 0, z: 0}
  m_LocalScale: {x: 1, y: 1, z: 1}
  m_ConstrainProportionsScale: 0
  m_Children: []
  m_Father: {fileID: 0}
  m_RootOrder: 0
  m_LocalEulerAnglesHint: {x: 0, y: 0, z: 0}
--- !u!114 &2310960883715059355
MonoBehaviour:
  m_ObjectHideFlags: 0
  m_CorrespondingSourceObject: {fileID: 0}
  m_PrefabInstance: {fileID: 0}
  m_PrefabAsset: {fileID: 0}
  m_GameObject: {fileID: 5719165662263407510}
  m_Enabled: 1
  m_EditorHideFlags: 0
  m_Script: {fileID: 11500000, guid: d0029f4e28b49b54da78d6eb96e99033, type: 3}
  m_Name: 
  m_EditorClassIdentifier: 
  startingGeneration: 1
  generationLogics:
    values:
    - Key: 1
      Value: {fileID: 11400000, guid: 52e1dd6cd6a316c4499e79cd7d21531d, type: 2}
    - Key: 2
      Value: {fileID: 11400000, guid: 146a8634c450df041b2bb1940bd278ce, type: 2}
    - Key: 3
      Value: {fileID: 11400000, guid: 3adf8d81638863e4588f11aa4b725612, type: 2}
